{
    "KPlugin": {
        "Description": "Highlight and open links",
        "Description[az]": "Keçidləri vurğulayın və açın",
        "Description[bg]": "Осветяване и използване на външни връзки",
        "Description[ca@valencia]": "Ressalta i obri els enllaços",
        "Description[ca]": "Ressalta i obre els enllaços",
        "Description[cs]": "Zvýraznit a otevírat odkazy",
        "Description[en_GB]": "Highlight and open links",
        "Description[eo]": "Emfazi kaj malfermi ligilojn",
        "Description[es]": "Resaltar todos los enlaces abiertos",
        "Description[eu]": "Estekak nabarmentzea eta irekitzea",
        "Description[fi]": "Korosta ja avaa linkit",
        "Description[fr]": "Mettre en valeur et ouvrir les liens",
        "Description[gl]": "Realzar e abrir ligazóns.",
        "Description[ia]": "Evidentia e aperi ligamines",
        "Description[it]": "Evidenzia e apre i collegamenti",
        "Description[ka]": "ბმულების გამოკვეთა და გასნა",
        "Description[ko]": "링크를 강조하고 열기",
        "Description[nl]": "Accentueer en open koppelingen",
        "Description[pl]": "Podświetl i otwórz odnośniki",
        "Description[pt]": "Realçar e abrir as ligações",
        "Description[ru]": "Выделение и открытие ссылок",
        "Description[sl]": "Osvetli in odpri povezave",
        "Description[sv]": "Markera och öppna länkar",
        "Description[tr]": "Bağlantıları vurgula ve aç",
        "Description[uk]": "Підсвічування і відкриття посилань",
        "Description[x-test]": "xxHighlight and open linksxx",
        "Description[zh_CN]": "高亮并打开链接",
        "Name": "Open Link",
        "Name[az]": "Keçidi açın",
        "Name[bg]": "Отваряне на връзка",
        "Name[ca@valencia]": "Obri l'enllaç",
        "Name[ca]": "Obre l'enllaç",
        "Name[cs]": "Otevřít odkaz",
        "Name[de]": "Verknüpfung öffnen",
        "Name[en_GB]": "Open Link",
        "Name[eo]": "Malfermi ligilon",
        "Name[es]": "Enlace abierto",
        "Name[eu]": "Ireki esteka",
        "Name[fi]": "Avaa linkki",
        "Name[fr]": "Ouvrir un lien",
        "Name[gl]": "Abrir a ligazón",
        "Name[ia]": "Aperi Ligamine",
        "Name[it]": "Apri collegamento",
        "Name[ka]": "ბმულის გახსნა",
        "Name[ko]": "링크 열기",
        "Name[nl]": "Koppeling openen",
        "Name[pl]": "Otwórz odnośnik",
        "Name[pt]": "Abrir a Ligação",
        "Name[pt_BR]": "Abrir link",
        "Name[ru]": "Открытие ссылок",
        "Name[sl]": "Odpri povezavo",
        "Name[sv]": "Öppna länk",
        "Name[tr]": "Bağlantı Aç",
        "Name[uk]": "Відкрити посилання",
        "Name[x-test]": "xxOpen Linkxx",
        "Name[zh_CN]": "打开链接",
        "ServiceTypes": [
            "KTextEditor/Plugin"
        ]
    }
}
